SeoulBikeData
…
#Checking uniqueness of categorical data
cat_cols <- bike_data |> select(-names(num_cols))
cat_cols

# A tibble: 8,760 × 4
   date       season holiday    functioning_day
   <date>     <chr>  <chr>      <chr>          
 1 2017-12-01 Winter No Holiday Yes            
 2 2017-12-01 Winter No Holiday Yes            
 3 2017-12-01 Winter No Holiday Yes            
 4 2017-12-01 Winter No Holiday Yes            
 5 2017-12-01 Winter No Holiday Yes            
 6 2017-12-01 Winter No Holiday Yes            
 7 2017-12-01 Winter No Holiday Yes            
 8 2017-12-01 Winter No Holiday Yes            
 9 2017-12-01 Winter No Holiday Yes            
10 2017-12-01 Winter No Holiday Yes            
# ℹ 8,750 more rows
…
#Step 7:create new dataset to summarize across hours in a day
bike_daily <- bike_data |>
  group_by(date, season, holiday) |>
  summarize(
    across(c(rented_count, rainfall, snowfall), sum, .names = "{.col}"),
    across(c(temp, humidity, wind_speed, vis, dew_temp, solar_rad), mean)
  ) |> ungroup()

`summarise()` has grouped output by 'date', 'season'. You can override using
the `.groups` argument.

bike_daily

# A tibble: 353 × 12
   date       season holiday    rented_count rainfall snowfall    temp humidity
   <date>     <fct>  <fct>             <dbl>    <dbl>    <dbl>   <dbl>    <dbl>
 1 2017-12-01 Winter No Holiday         9539      0        0   -2.45       45.9
 2 2017-12-02 Winter No Holiday         8523      0        0    1.32       62.0
 3 2017-12-03 Winter No Holiday         7222      4        0    4.88       81.5
 4 2017-12-04 Winter No Holiday         8729      0.1      0   -0.304      52.5
 5 2017-12-05 Winter No Holiday         8307      0        0   -4.46       36.4
 6 2017-12-06 Winter No Holiday         6669      1.3      8.6  0.0458     70.8
 7 2017-12-07 Winter No Holiday         8549      0       10.4  1.09       67.5
 8 2017-12-08 Winter No Holiday         8032      0        0   -3.82       41.8
 9 2017-12-09 Winter No Holiday         7233      0        0   -0.846      46  
10 2017-12-10 Winter No Holiday         3453      4.1     32.5  1.19       69.7
# ℹ 343 more rows
# ℹ 4 more variables: wind_speed <dbl>, vis <dbl>, dew_temp <dbl>,
#   solar_rad <dbl>
…
# Checking for errors
recipe1 |> 
  prep(training = train_data) |>
  bake(train_data)

# A tibble: 263 × 15
   date       rainfall snowfall  temp humidity wind_speed    vis dew_temp
   <date>        <dbl>    <dbl> <dbl>    <dbl>      <dbl>  <dbl>    <dbl>
 1 2018-09-01   -0.292   -0.230 1.09    0.218      -0.855 0.821     0.999
 2 2018-09-04   -0.292   -0.230 0.904   0.950       0.697 0.0483    1.03 
 3 2018-09-05   -0.292   -0.230 0.953   0.259       1.24  1.05      0.901
 4 2018-09-07   -0.148   -0.230 0.812  -0.0864      1.20  0.841     0.687
 5 2018-09-08   -0.292   -0.230 0.773  -0.663      -0.113 1.11      0.469
 6 2018-09-09   -0.292   -0.230 0.796  -0.608      -0.814 1.14      0.504
 7 2018-09-10   -0.292   -0.230 0.878  -0.564      -0.281 1.14      0.611
 8 2018-09-12   -0.292   -0.230 0.843  -0.435      -0.673 1.12      0.630
 9 2018-09-13   -0.292   -0.230 0.920   0.294      -0.828 1.12      0.915
10 2018-09-14   -0.244   -0.230 0.922   0.640      -0.700 1.05      1.01 
# ℹ 253 more rows
# ℹ 7 more variables: solar_rad <dbl>, rented_count <dbl>, season_Spring <dbl>,
#   season_Summer <dbl>, season_Winter <dbl>, holiday_No.Holiday <dbl>,
#   day_type_weekend <dbl>
…
best_fit |> collect_metrics() #RMSE = 3115

# A tibble: 2 × 4
  .metric .estimator .estimate .config        
  <chr>   <chr>          <dbl> <chr>          
1 rmse    standard    3571.    pre0_mod0_post0
2 rsq     standard       0.878 pre0_mod0_post0

coefficient_of_fit <- best_fit |> extract_fit_parsnip() |> tidy()
coefficient_of_fit

# A tibble: 21 × 5
   term          estimate std.error statistic  p.value
   <chr>            <dbl>     <dbl>     <dbl>    <dbl>
 1 (Intercept)     17436.     1396.    12.5   5.74e-28
 2 rainfall        -2414.      495.    -4.87  1.99e- 6
 3 snowfall         -117.      187.    -0.627 5.31e- 1
 4 temp            -3785.     3757.    -1.01  3.15e- 1
 5 humidity        -3314.     1312.    -2.53  1.22e- 2
 6 wind_speed       -511.      197.    -2.59  1.01e- 2
 7 vis               501.      251.     2.00  4.67e- 2
 8 dew_temp        10733.     4284.     2.51  1.29e- 2
 9 solar_rad        2846.      302.     9.43  3.39e-18
10 season_Spring     917.     2420.     0.379 7.05e- 1
# ℹ 11 more rows
